## Autogenerated by Scribe. DO NOT MODIFY.

name: Endpoints
description: ''
endpoints:
  -
    httpMethods:
      - GET
    uri: api/articles
    metadata:
      groupName: Endpoints
      groupDescription: ''
      subgroup: ''
      subgroupDescription: ''
      title: ''
      description: ''
      authenticated: false
      custom: []
    headers:
      Content-Type: application/json
      Accept: application/json
    urlParameters: []
    cleanUrlParameters: []
    queryParameters: []
    cleanQueryParameters: []
    bodyParameters: []
    cleanBodyParameters: []
    fileParameters: []
    responses:
      -
        status: 200
        content: '{"success":true,"data":{"current_page":1,"data":[{"id":1,"title":"Kershaw becomes 20th member of 3,000-K club - ESPN","author":"Alden Gonzalez","description":"The Dodgers'' Clayton Kershaw became the fifth pitcher in MLB history to reach 3,000 strikeouts with one franchise, pulling the feat Wednesday night against the White Sox.","content":"LOS ANGELES -- His start prolonged, the whiffs remained elusive, and the Dodger Stadium crowd became increasingly concerned that Clayton Kershaw might not reach a hallowed milestone in front of them \u2026 [+3868 chars]","url":"https:\/\/www.espn.com\/mlb\/story\/_\/id\/45651968\/clayton-kershaw-reaches-3000-strikeouts-dodgers","url_to_image":"https:\/\/a3.espncdn.com\/combiner\/i?img=%2Fphoto%2F2025%2F0703%2Fr1514300_1296x729_16%2D9.jpg","source":"ESPN","category":null,"published_at":"2025-07-03 03:54:00","created_at":"2025-07-04T06:34:51.000000Z","updated_at":"2025-07-04T06:34:51.000000Z"},{"id":2,"title":"Racketeering was a \u2018stretch\u2019 in Sean \u2018Diddy\u2019 Combs trial, legal experts say - The Washington Post","author":"Shayna Jacobs, Salvador Rizzo","description":"A federal court jury in the Sean \u201cDiddy\u201d Combs case rejected the government\u2019s theory that he ran a criminal enterprise that helped him carry out serious crimes.","content":"NEW YORK A federal court jury in the Sean Diddy Combs case rejected the governments theory that he ran a criminal enterprise that helped him carry out serious crimes including sex trafficking and dru\u2026 [+5531 chars]","url":"https:\/\/www.washingtonpost.com\/politics\/2025\/07\/02\/sean-combs-verdict-legal-experts-racketeering-sex-trafficking\/","url_to_image":"https:\/\/www.washingtonpost.com\/wp-apps\/imrs.php?src=https:\/\/arc-anglerfish-washpost-prod-washpost.s3.amazonaws.com\/public\/X66NRXHJGDTXC5PT45DCV37FS4.JPG&w=1440","source":"The Washington Post","category":null,"published_at":"2025-07-03 02:34:58","created_at":"2025-07-04T06:34:51.000000Z","updated_at":"2025-07-04T06:34:51.000000Z"},{"id":3,"title":"Your Roku has secret menus and screens - here''s how to unlock them - ZDNET","author":"Elyse Betters Picaro","description":"Pressing a specific button sequence on your Roku remote can open up a hidden world of features you likely never knew existed.","content":"Elyse Betters Picaro \/ ZDNET\r\nDid you know Roku has several secret menus you can access with just a few clicks of the remote? They''re like easter eggs -- hidden screens that can reveal diagnostic inf\u2026 [+1085 chars]","url":"https:\/\/www.zdnet.com\/home-and-office\/home-entertainment\/your-roku-has-secret-menus-and-screens-heres-how-to-unlock-them\/","url_to_image":"https:\/\/www.zdnet.com\/a\/img\/resize\/2448c10560fddf1136e66368f853d52a3bce554f\/2025\/07\/02\/bff35dfc-1143-4f5c-8c7e-e9801462ec1c\/9.jpg?auto=webp&fit=crop&height=675&width=1200","source":"ZDNet","category":null,"published_at":"2025-07-03 02:00:00","created_at":"2025-07-04T06:34:51.000000Z","updated_at":"2025-07-04T06:34:51.000000Z"},{"id":4,"title":"Trump, Johnson rush to get House GOP holdouts to back tax bill - The Washington Post","author":"Marianna Sotomayor, Jacob Bogage, Mariana Alfaro","description":"Fiscal hawks have concerns over the legislation\u2019s ballooning price, and some moderate conservatives are uneasy about steeper cuts to Medicaid.","content":"House Republicans were on the cusp of handing President Donald Trump his second terms first legislative victory Wednesday evening, with a massive tax and immigration agenda, but remain stuck in negot\u2026 [+6273 chars]","url":"https:\/\/www.washingtonpost.com\/politics\/2025\/07\/02\/house-vote-big-beautiful-bill-trump\/","url_to_image":"https:\/\/www.washingtonpost.com\/wp-apps\/imrs.php?src=https:\/\/arc-anglerfish-washpost-prod-washpost.s3.amazonaws.com\/public\/VN2V5TF3LYKJQURPT7SR52JKFU.JPG&w=1440","source":"The Washington Post","category":null,"published_at":"2025-07-03 01:15:08","created_at":"2025-07-04T06:34:51.000000Z","updated_at":"2025-07-04T06:34:51.000000Z"},{"id":5,"title":"Jerome Powell: Trump calls for US central bank head to quit immediately - BBC","author":null,"description":"The president has repeatedly criticised Jerome Powell for not cutting rates but has sent mixed signals about removing him from the role.","content":"US President Donald Trump has called for the chair of the Federal Reserve to quit right away, in an escalation of his attacks on Jerome Powell.\r\n\"''Too Late'' should resign immediately!!!\", Trump said \u2026 [+2441 chars]","url":"https:\/\/www.bbc.com\/news\/articles\/crmv4ldv923o","url_to_image":"https:\/\/ichef.bbci.co.uk\/news\/1024\/branded_news\/7e27\/live\/191d5f50-579e-11f0-928e-73d4c154b474.jpg","source":"BBC News","category":null,"published_at":"2025-07-03 01:09:56","created_at":"2025-07-04T06:34:51.000000Z","updated_at":"2025-07-04T06:34:51.000000Z"},{"id":6,"title":"It''s Official: NASA Confirms New Interstellar Object Is Zooming Through Solar System - ScienceAlert","author":"AFP","description":"Astronomers on Wednesday confirmed the discovery of an interstellar object racing through our Solar System \u2013 only the third ever spotted, though scientists suspect many more may slip past unnoticed.","content":"Astronomers on Wednesday confirmed the discovery of an interstellar object racing through our Solar System only the third ever spotted, though scientists suspect many more may slip past unnoticed.\r\nT\u2026 [+4159 chars]","url":"https:\/\/www.sciencealert.com\/its-official-nasa-confirms-new-interstellar-object-is-zooming-through-solar-system","url_to_image":"https:\/\/www.sciencealert.com\/images\/2025\/07\/A11pl3Z-_20250702_144800.jpg","source":"ScienceAlert","category":null,"published_at":"2025-07-03 01:08:48","created_at":"2025-07-04T06:34:51.000000Z","updated_at":"2025-07-04T06:34:51.000000Z"},{"id":7,"title":"Diego Luna strikes shaky USMNT to win over Guatemala, and into Gold Cup final - Yahoo Sports","author":"Henry Bushnell","description":"The USMNT hung on for dear life to a 2-1 lead, and beat Guatemala, FIFA''s 106th-ranked team, in Wednesday''s semifinal.","content":"ST. LOUIS The U.S. mens national team is heading to the Gold Cup final, and from the fourth minute onward here at Energizer Park, that outcome was rarely in doubt.\r\nThe USMNT raced out to an early 2-\u2026 [+3786 chars]","url":"https:\/\/sports.yahoo.com\/soccer\/live\/diego-luna-strikes-shaky-usmnt-to-win-over-guatemala-and-into-gold-cup-final-220049951.html","url_to_image":"https:\/\/s.yimg.com\/ny\/api\/res\/1.2\/qZgBEcMS4mu7nW8C2nl7UA--\/YXBwaWQ9aGlnaGxhbmRlcjt3PTEyMDA7aD04MDA7Y2Y9d2VicA--\/https:\/\/s.yimg.com\/os\/creatr-uploaded-images\/2025-07\/d067de50-579f-11f0-bfeb-a2fd89b4e2c1","source":"Yahoo Entertainment","category":null,"published_at":"2025-07-03 01:06:00","created_at":"2025-07-04T06:34:51.000000Z","updated_at":"2025-07-04T06:34:51.000000Z"},{"id":8,"title":"Hamas is open to a ceasefire. But Netanyahu says there''s no room for Hamas in postwar Gaza - The Washington Post","author":"Fatma Khaled, Samy Magdy and Bassem Mroue\u2009|\u2009AP","description":"Hamas and Israel staked out their positions ahead of expected talks on a Washington-backed ceasefire proposal","content":"CAIRO Hamas and Israel staked out their positions Wednesday ahead of expected talks on a Washington-backed ceasefire proposal, with the militant group suggesting it was open to an agreement while the\u2026 [+6743 chars]","url":"https:\/\/www.washingtonpost.com\/world\/2025\/07\/02\/israel-palestinians-hamas-war-news-07-02-2025\/77bbed34-571b-11f0-b45b-dc9aeb848c03_story.html","url_to_image":"https:\/\/www.washingtonpost.com\/wp-apps\/imrs.php?src=https:\/\/arc-anglerfish-washpost-prod-washpost.s3.amazonaws.com\/public\/R3Y6FECXGEI7BNC33SNOXBEMAM_size-normalized.jpg&w=1440","source":"The Washington Post","category":null,"published_at":"2025-07-03 00:40:25","created_at":"2025-07-04T06:34:51.000000Z","updated_at":"2025-07-04T06:34:51.000000Z"},{"id":9,"title":"Trump allies caught off guard by Pentagon\u2019s Ukraine weapons freeze - Politico","author":"Jack Detsch, Paul McLeary, Felicia Schwartz, Eli Stokols","description":"The decision left officials on both sides of the Atlantic scrambling to find out how long the pause might last.","content":"Even allies of President Donald Trump were frustrated by the move, and accused officials such as Colby who led a review of U.S. munitions stockpiles that preceded the freeze of pushing the move forwa\u2026 [+7603 chars]","url":"https:\/\/www.politico.com\/news\/2025\/07\/02\/ukraine-weapons-freeze-elbridge-colby-00438156","url_to_image":"https:\/\/static.politico.com\/c7\/6f\/555e46f84827bff9786522651da9\/https-delivery-gettyimages.com\/downloads\/2212966878","source":"Politico","category":null,"published_at":"2025-07-03 00:28:00","created_at":"2025-07-04T06:34:51.000000Z","updated_at":"2025-07-04T06:34:51.000000Z"},{"id":10,"title":"Federal judge strikes down Trump''s order suspending asylum access at the southern border - NPR","author":"","description":"The ruling was a win for immigrant advocacy groups that sued over the president''s order, which they say put thousands of lives at risk.","content":"A federal judge in Washington, D.C. ruled Wednesday that the Trump administration cannot deny entry to people crossing the southern border to apply for asylum. The court found that neither the consti\u2026 [+1801 chars]","url":"https:\/\/www.npr.org\/2025\/07\/02\/nx-s1-5455076\/judge-rules-against-trump-asylum-ban","url_to_image":"https:\/\/npr.brightspotcdn.com\/dims3\/default\/strip\/false\/crop\/4799x2699+0+261\/resize\/1400\/quality\/100\/format\/jpeg\/?url=http%3A%2F%2Fnpr-brightspot.s3.amazonaws.com%2Fdf%2F60%2F1a44662c4e34a83499135023efd3%2Fap25163034909834.jpg","source":"NPR","category":null,"published_at":"2025-07-03 00:19:48","created_at":"2025-07-04T06:34:51.000000Z","updated_at":"2025-07-04T06:34:51.000000Z"},{"id":11,"title":"Skydiving plane with 15 people onboard goes off runway at New Jersey airport, injuring multiple people - CNN","author":"Alexandra Skores, Dalia Faheid","description":"A skydiving plane with 15 people onboard went off the end of the runway at a New Jersey airport, southeast of Philadelphia, Wednesday evening, according to the Federal Aviation Administration.","content":"A skydiving plane with 15 people onboard went off the end of a runway at a New Jersey airport Wednesday evening, resulting in multiple injuries, authorities said.\r\nThe pilot reported engine trouble a\u2026 [+2039 chars]","url":"https:\/\/www.cnn.com\/2025\/07\/02\/us\/skydiving-plane-crash-new-jersey","url_to_image":"https:\/\/media.cnn.com\/api\/v1\/images\/stellar\/prod\/wpvi-20250702231812149.jpg?c=16x9&q=w_800,c_fill","source":"CNN","category":null,"published_at":"2025-07-02 23:44:00","created_at":"2025-07-04T06:34:51.000000Z","updated_at":"2025-07-04T06:34:51.000000Z"},{"id":12,"title":"Summer and after-school programs at risk under Trump''s K-12 funding hold - Axios","author":"Avery Lotz","description":"The Education Department said in a last-minute notice that the funds would not be released while the programs were under review.","content":"<ul><li>The Education Department said in a last-minute notice that the funds would not be released while the programs were under review, according to the School Superintendents Association.<\/li><\/ul>\u2026 [+3494 chars]","url":"https:\/\/www.axios.com\/2025\/07\/02\/trump-administration-withholds-education-fund","url_to_image":"https:\/\/images.axios.com\/ZLPzwmj8t6aXke9pUYJLkQXavO0=\/0x0:1344x756\/1366x768\/2025\/07\/02\/1751481113385.png","source":"Axios","category":null,"published_at":"2025-07-02 22:57:07","created_at":"2025-07-04T06:34:51.000000Z","updated_at":"2025-07-04T06:34:51.000000Z"},{"id":13,"title":"Answering the burning Mike Brown questions that loom over his Knicks hiring - New York Post","author":"Stefan Bondy","description":"The Knicks completed their head coaching search on Wednesday, hiring Mike Brown. You probably have questions. The Post\u2019s Stefan Bondy has answers:","content":"The Knicks completed their head coaching search on Wednesday, hiring Mike Brown. You probably have questions. The Posts Stefan Bondy has answers:\r\nQ: Doesnt this feel \u2026 meh?\r\nA: Yeah, thats what happ\u2026 [+614 chars]","url":"https:\/\/nypost.com\/2025\/07\/02\/sports\/answering-mike-brown-questions-that-loom-over-knicks-hiring\/","url_to_image":"https:\/\/nypost.com\/wp-content\/uploads\/sites\/2\/2025\/07\/sacramento-kings-head-coach-mike-79499295.jpg?quality=75&strip=all&w=1024","source":"New York Post","category":null,"published_at":"2025-07-02 22:51:00","created_at":"2025-07-04T06:34:51.000000Z","updated_at":"2025-07-04T06:34:51.000000Z"},{"id":14,"title":"Tibet is silent as Dalai Lama turns 90, BBC finds - BBC","author":null,"description":"The BBC speaks to Tibetans in Aba, which has long been at the heart of resistance to Chinese rule.","content":"Laura BickerReporting from\r\nAba, Sichuan province\r\nThe BBC visited the Kirti monastery in Aba, which has long been the heart of Tibetan resistance to Beijing\r\nShrouded in crimson robes, prayer beads \u2026 [+11747 chars]","url":"https:\/\/www.bbc.com\/news\/articles\/c5y772jlpgzo","url_to_image":"https:\/\/ichef.bbci.co.uk\/news\/1024\/branded_news\/fb21\/live\/024184c0-576f-11f0-b5c5-012c5796682d.jpg","source":"BBC News","category":null,"published_at":"2025-07-02 21:28:28","created_at":"2025-07-04T06:34:51.000000Z","updated_at":"2025-07-04T06:34:51.000000Z"},{"id":15,"title":"A Ukrainian actress saw herself in a White House video \u2014 and created one in response - NPR","author":"Polina Lytvynova","description":"Antonina Khyzhniak, who appeared in stock footage included in a White House Instagram video for the Trump administration''s tax bill, responded with a humorous video \u2014 and a serious message.","content":"KYIV, Ukraine A social media video promoting President Trump''s tax bill is getting a lot of attention in Ukraine. The reason involves a TV star, a mission and a powerful Ukrainian weapon humor.\r\nLast\u2026 [+2955 chars]","url":"https:\/\/www.npr.org\/2025\/07\/02\/nx-s1-5453770\/ukraine-actress-white-house-video-trump-antonina-khyzhniak","url_to_image":"https:\/\/npr.brightspotcdn.com\/dims3\/default\/strip\/false\/crop\/664x374+0+117\/resize\/1400\/quality\/100\/format\/png\/?url=http%3A%2F%2Fnpr-brightspot.s3.amazonaws.com%2Fa5%2F7c%2F79599af24620af83d2ef759e9b36%2Fscreenshot-2025-07-02-at-4-01-54-pm.png","source":"NPR","category":null,"published_at":"2025-07-02 21:00:49","created_at":"2025-07-04T06:34:51.000000Z","updated_at":"2025-07-04T06:34:51.000000Z"}],"first_page_url":"http:\/\/news-aggregator.test\/api\/articles?page=1","from":1,"last_page":7,"last_page_url":"http:\/\/news-aggregator.test\/api\/articles?page=7","links":[{"url":null,"label":"&laquo; Previous","active":false},{"url":"http:\/\/news-aggregator.test\/api\/articles?page=1","label":"1","active":true},{"url":"http:\/\/news-aggregator.test\/api\/articles?page=2","label":"2","active":false},{"url":"http:\/\/news-aggregator.test\/api\/articles?page=3","label":"3","active":false},{"url":"http:\/\/news-aggregator.test\/api\/articles?page=4","label":"4","active":false},{"url":"http:\/\/news-aggregator.test\/api\/articles?page=5","label":"5","active":false},{"url":"http:\/\/news-aggregator.test\/api\/articles?page=6","label":"6","active":false},{"url":"http:\/\/news-aggregator.test\/api\/articles?page=7","label":"7","active":false},{"url":"http:\/\/news-aggregator.test\/api\/articles?page=2","label":"Next &raquo;","active":false}],"next_page_url":"http:\/\/news-aggregator.test\/api\/articles?page=2","path":"http:\/\/news-aggregator.test\/api\/articles","per_page":15,"prev_page_url":null,"to":15,"total":99}}'
        headers:
          cache-control: 'no-cache, private'
          content-type: application/json
          access-control-allow-origin: '*'
        description: null
        custom: []
    responseFields: []
    auth: []
    controller: null
    method: null
    route: null
    custom: []
  -
    httpMethods:
      - GET
    uri: 'api/articles/{id}'
    metadata:
      groupName: Endpoints
      groupDescription: ''
      subgroup: ''
      subgroupDescription: ''
      title: ''
      description: ''
      authenticated: false
      custom: []
    headers:
      Content-Type: application/json
      Accept: application/json
    urlParameters:
      id:
        name: id
        description: 'The ID of the article.'
        required: true
        example: 1
        type: integer
        enumValues: []
        exampleWasSpecified: false
        nullable: false
        custom: []
    cleanUrlParameters:
      id: 1
    queryParameters: []
    cleanQueryParameters: []
    bodyParameters: []
    cleanBodyParameters: []
    fileParameters: []
    responses:
      -
        status: 200
        content: '{"id":1,"title":"Kershaw becomes 20th member of 3,000-K club - ESPN","author":"Alden Gonzalez","description":"The Dodgers'' Clayton Kershaw became the fifth pitcher in MLB history to reach 3,000 strikeouts with one franchise, pulling the feat Wednesday night against the White Sox.","content":"LOS ANGELES -- His start prolonged, the whiffs remained elusive, and the Dodger Stadium crowd became increasingly concerned that Clayton Kershaw might not reach a hallowed milestone in front of them \u2026 [+3868 chars]","url":"https:\/\/www.espn.com\/mlb\/story\/_\/id\/45651968\/clayton-kershaw-reaches-3000-strikeouts-dodgers","url_to_image":"https:\/\/a3.espncdn.com\/combiner\/i?img=%2Fphoto%2F2025%2F0703%2Fr1514300_1296x729_16%2D9.jpg","source":"ESPN","category":null,"published_at":"2025-07-03 03:54:00","created_at":"2025-07-04T06:34:51.000000Z","updated_at":"2025-07-04T06:34:51.000000Z"}'
        headers:
          cache-control: 'no-cache, private'
          content-type: application/json
          access-control-allow-origin: '*'
        description: null
        custom: []
    responseFields: []
    auth: []
    controller: null
    method: null
    route: null
    custom: []
